<?xml version="1.0" standalone="no"?>
<!DOCTYPE svg PUBLIC "-//W3C//DTD SVG 20010904//EN"
 "http://www.w3.org/TR/2001/REC-SVG-20010904/DTD/svg10.dtd">
<svg version="1.0" xmlns="http://www.w3.org/2000/svg"
 width="184.000000pt" height="184.000000pt" viewBox="0 0 184.000000 184.000000"
 preserveAspectRatio="xMidYMid meet">
<metadata>
Created by potrace 1.14, written by Peter Selinger 2001-2017
</metadata>
<g transform="translate(0.000000,184.000000) scale(0.100000,-0.100000)"
fill="#000000" stroke="none">
<path d="M841 1496 c-10 -12 -27 -167 -60 -539 l-45 -523 56 -70 c30 -38 65
-78 77 -88 20 -19 21 -18 58 7 21 14 62 47 90 74 l53 48 10 110 c6 61 19 211
30 335 10 124 27 312 36 419 20 229 27 215 -104 225 -48 4 -110 9 -137 13 -40
4 -54 2 -64 -11z m198 -82 l44 -6 -7 -66 c-4 -36 -9 -68 -10 -70 -2 -2 -43 0
-90 4 l-86 7 0 36 c0 20 3 52 6 72 l6 36 47 -4 c25 -2 66 -6 90 -9z m5 -223
c17 -1 18 -7 12 -83 -15 -190 -47 -556 -52 -597 l-6 -44 -85 6 c-47 3 -88 8
-90 11 -5 4 37 533 53 671 l6 51 71 -8 c40 -4 81 -7 91 -7z"/>
<path d="M428 1319 c-16 -9 -18 -27 -18 -151 l0 -141 -65 -68 c-36 -37 -65
-75 -65 -86 0 -10 29 -47 65 -83 l65 -64 2 -150 3 -151 80 0 80 0 0 30 c0 28
-3 30 -42 33 l-43 3 0 132 0 132 -57 58 -56 58 56 57 57 58 0 131 0 132 43 3
c35 3 43 7 45 26 6 38 -15 52 -77 52 -31 0 -64 -5 -73 -11z"/>
<path d="M1308 1319 c-40 -23 -14 -69 39 -69 l33 0 0 -131 0 -130 57 -60 57
-60 -57 -57 -57 -58 0 -131 0 -132 -42 -3 c-40 -3 -43 -5 -43 -33 0 -35 21
-42 103 -35 l57 5 3 151 2 150 65 64 c36 36 65 72 65 80 0 9 -29 47 -65 86
l-64 69 -1 141 c0 95 -4 144 -12 152 -15 15 -116 15 -140 1z"/>
</g>
</svg>
